^C:\USERS\HAHA\DOCUMENTS\VISUAL STUDIO 2010\PROJECTS\OBJDETECT\MYOPENCV\FIRSTPROG.CPP|C:\USERS\HAHA\DOCUMENTS\VISUAL STUDIO 2010\PROJECTS\OBJDETECT\MYOPENCV\LATENTSVM_MULTIDETECT.CPP|C:\USERS\HAHA\DOCUMENTS\VISUAL STUDIO 2010\PROJECTS\OBJDETECT\MYOPENCV\MAIN.CPP|C:\USERS\HAHA\DOCUMENTS\VISUAL STUDIO 2010\PROJECTS\OBJDETECT\MYOPENCV\OBJDETECT.CPP
C:\USERS\HAHA\DOCUMENTS\VISUAL STUDIO 2010\PROJECTS\OBJDETECT\MYOPENCV\DEBUG\FIRSTPROG.OBJ
C:\USERS\HAHA\DOCUMENTS\VISUAL STUDIO 2010\PROJECTS\OBJDETECT\MYOPENCV\DEBUG\LATENTSVM_MULTIDETECT.OBJ
C:\USERS\HAHA\DOCUMENTS\VISUAL STUDIO 2010\PROJECTS\OBJDETECT\MYOPENCV\DEBUG\MAIN.OBJ
C:\USERS\HAHA\DOCUMENTS\VISUAL STUDIO 2010\PROJECTS\OBJDETECT\MYOPENCV\DEBUG\OBJDETECT.OBJ
^C:\USERS\HAHA\DOCUMENTS\VISUAL STUDIO 2010\PROJECTS\OBJDETECT\MYOPENCV\FIRSTPROG.CPP
C:\USERS\HAHA\DOCUMENTS\VISUAL STUDIO 2010\PROJECTS\OBJDETECT\MYOPENCV\DEBUG\VC100.PDB
^C:\USERS\HAHA\DOCUMENTS\VISUAL STUDIO 2010\PROJECTS\OBJDETECT\MYOPENCV\LATENTSVM_MULTIDETECT.CPP
C:\USERS\HAHA\DOCUMENTS\VISUAL STUDIO 2010\PROJECTS\OBJDETECT\MYOPENCV\DEBUG\VC100.PDB
^C:\USERS\HAHA\DOCUMENTS\VISUAL STUDIO 2010\PROJECTS\OBJDETECT\MYOPENCV\MAIN.CPP
C:\USERS\HAHA\DOCUMENTS\VISUAL STUDIO 2010\PROJECTS\OBJDETECT\MYOPENCV\DEBUG\VC100.PDB
^C:\USERS\HAHA\DOCUMENTS\VISUAL STUDIO 2010\PROJECTS\OBJDETECT\MYOPENCV\OBJDETECT.CPP
C:\USERS\HAHA\DOCUMENTS\VISUAL STUDIO 2010\PROJECTS\OBJDETECT\MYOPENCV\DEBUG\VC100.PDB
^D:\DOCUMENTS\OBJDETECT\MYOPENCV\FIRSTPROG.CPP|D:\DOCUMENTS\OBJDETECT\MYOPENCV\LATENTSVM_MULTIDETECT.CPP|D:\DOCUMENTS\OBJDETECT\MYOPENCV\MAIN.CPP|D:\DOCUMENTS\OBJDETECT\MYOPENCV\OBJDETECT.CPP
D:\DOCUMENTS\OBJDETECT\MYOPENCV\DEBUG\FIRSTPROG.OBJ
D:\DOCUMENTS\OBJDETECT\MYOPENCV\DEBUG\LATENTSVM_MULTIDETECT.OBJ
D:\DOCUMENTS\OBJDETECT\MYOPENCV\DEBUG\MAIN.OBJ
D:\DOCUMENTS\OBJDETECT\MYOPENCV\DEBUG\OBJDETECT.OBJ
^D:\DOCUMENTS\OBJDETECT\MYOPENCV\FIRSTPROG.CPP
D:\DOCUMENTS\OBJDETECT\MYOPENCV\DEBUG\VC100.PDB
^D:\DOCUMENTS\OBJDETECT\MYOPENCV\LATENTSVM_MULTIDETECT.CPP
D:\DOCUMENTS\OBJDETECT\MYOPENCV\DEBUG\VC100.PDB
^D:\DOCUMENTS\OBJDETECT\MYOPENCV\MAIN.CPP
D:\DOCUMENTS\OBJDETECT\MYOPENCV\DEBUG\VC100.PDB
^D:\DOCUMENTS\OBJDETECT\MYOPENCV\OBJDETECT.CPP
D:\DOCUMENTS\OBJDETECT\MYOPENCV\DEBUG\VC100.PDB
