^C:\USERS\HAHA\DOCUMENTS\VISUAL STUDIO 2010\PROJECTS\OBJDETECT\MYOPENCV\DEBUG\FIRSTPROG.OBJ|C:\USERS\HAHA\DOCUMENTS\VISUAL STUDIO 2010\PROJECTS\OBJDETECT\MYOPENCV\DEBUG\LATENTSVM_MULTIDETECT.OBJ|C:\USERS\HAHA\DOCUMENTS\VISUAL STUDIO 2010\PROJECTS\OBJDETECT\MYOPENCV\DEBUG\MAIN.OBJ|C:\USERS\HAHA\DOCUMENTS\VISUAL STUDIO 2010\PROJECTS\OBJDETECT\MYOPENCV\DEBUG\OBJDETECT.EXE.EMBED.MANIFEST.RES|C:\USERS\HAHA\DOCUMENTS\VISUAL STUDIO 2010\PROJECTS\OBJDETECT\MYOPENCV\DEBUG\OBJDETECT.OBJ
/ERRORREPORT:PROMPT /OUT:"C:\Users\haha\Documents\Visual Studio 2010\Projects\ObjDetect\Debug\ObjDetect.exe" /INCREMENTAL /NOLOGO /LIBPATH:C:\opencv\build\x86\vc10\lib WS2_32.lib opencv_core245d.lib opencv_imgproc245d.lib opencv_highgui245d.lib opencv_ml245d.lib opencv_video245d.lib opencv_features2d245d.lib opencv_calib3d245d.lib opencv_objdetect245d.lib opencv_contrib245d.lib opencv_legacy245d.lib opencv_flann245d.lib opencv_core245d.lib opencv_imgproc245d.lib opencv_highgui245d.lib opencv_ml245d.lib opencv_video245d.lib opencv_features2d245d.lib opencv_calib3d245d.lib kernel32.lib user32.lib gdi32.lib winspool.lib comdlg32.lib advapi32.lib shell32.lib ole32.lib oleaut32.lib uuid.lib odbc32.lib odbccp32.lib /MANIFEST /ManifestFile:"Debug\ObjDetect.exe.intermediate.manifest" /MANIFESTUAC:"level='asInvoker' uiAccess='false'" /DEBUG /PDB:"C:\Users\haha\Documents\Visual Studio 2010\Projects\ObjDetect\Debug\ObjDetect.pdb" /SUBSYSTEM:CONSOLE /TLBID:1 /DYNAMICBASE /NXCOMPAT /IMPLIB:"C:\Users\haha\Documents\Visual Studio 2010\Projects\ObjDetect\Debug\ObjDetect.lib" /MACHINE:X86 Debug\ObjDetect.exe.embed.manifest.res
Debug\firstProg.obj
Debug\latentsvm_multidetect.obj
Debug\main.obj
Debug\ObjDetect.obj
^D:\DOCUMENTS\OBJDETECT\MYOPENCV\DEBUG\FIRSTPROG.OBJ|D:\DOCUMENTS\OBJDETECT\MYOPENCV\DEBUG\LATENTSVM_MULTIDETECT.OBJ|D:\DOCUMENTS\OBJDETECT\MYOPENCV\DEBUG\MAIN.OBJ|D:\DOCUMENTS\OBJDETECT\MYOPENCV\DEBUG\OBJDETECT.EXE.EMBED.MANIFEST.RES|D:\DOCUMENTS\OBJDETECT\MYOPENCV\DEBUG\OBJDETECT.OBJ
/ERRORREPORT:PROMPT /OUT:"D:\Documents\ObjDetect\Debug\ObjDetect.exe" /INCREMENTAL /NOLOGO /LIBPATH:C:\opencv\build\x86\vc10\lib WS2_32.lib opencv_core245d.lib opencv_imgproc245d.lib opencv_highgui245d.lib opencv_ml245d.lib opencv_video245d.lib opencv_features2d245d.lib opencv_calib3d245d.lib opencv_objdetect245d.lib opencv_contrib245d.lib opencv_legacy245d.lib opencv_flann245d.lib opencv_core245d.lib opencv_imgproc245d.lib opencv_highgui245d.lib opencv_ml245d.lib opencv_video245d.lib opencv_features2d245d.lib opencv_calib3d245d.lib kernel32.lib user32.lib gdi32.lib winspool.lib comdlg32.lib advapi32.lib shell32.lib ole32.lib oleaut32.lib uuid.lib odbc32.lib odbccp32.lib /MANIFEST /ManifestFile:"Debug\ObjDetect.exe.intermediate.manifest" /MANIFESTUAC:"level='asInvoker' uiAccess='false'" /DEBUG /PDB:"D:\Documents\ObjDetect\Debug\ObjDetect.pdb" /SUBSYSTEM:CONSOLE /TLBID:1 /DYNAMICBASE /NXCOMPAT /IMPLIB:"D:\Documents\ObjDetect\Debug\ObjDetect.lib" /MACHINE:X86 Debug\ObjDetect.exe.embed.manifest.res
Debug\firstProg.obj
Debug\latentsvm_multidetect.obj
Debug\main.obj
Debug\ObjDetect.obj
