^C:\USERS\HAHA\DOCUMENTS\VISUAL STUDIO 2010\PROJECTS\OBJDETECT\MYOPENCV\DEBUG\OBJDETECT.EXE.INTERMEDIATE.MANIFEST
/nologo /verbose /out:"Debug\ObjDetect.exe.embed.manifest" /manifest Debug\ObjDetect.exe.intermediate.manifest
^D:\DOCUMENTS\OBJDETECT\MYOPENCV\DEBUG\OBJDETECT.EXE.INTERMEDIATE.MANIFEST
/nologo /verbose /out:"Debug\ObjDetect.exe.embed.manifest" /manifest Debug\ObjDetect.exe.intermediate.manifest
