^C:\USERS\HAHA\DOCUMENTS\VISUAL STUDIO 2010\PROJECTS\OBJDETECT\MYOPENCV\DEBUG\OBJDETECT.EXE.INTERMEDIATE.MANIFEST
C:\USERS\HAHA\DOCUMENTS\VISUAL STUDIO 2010\PROJECTS\OBJDETECT\MYOPENCV\DEBUG\OBJDETECT.EXE.EMBED.MANIFEST
^D:\DOCUMENTS\OBJDETECT\MYOPENCV\DEBUG\OBJDETECT.EXE.INTERMEDIATE.MANIFEST
D:\DOCUMENTS\OBJDETECT\MYOPENCV\DEBUG\OBJDETECT.EXE.EMBED.MANIFEST
